Fascia,Cognome e Nome,Genere,Ateneo,FacoltÃ ,S.C.,Struttura di afferenza
Associato confermato,ACCARDO Aldo,M,CAGLIARI,Scienze della Formazione,11/A3,"Dip. STUDI STORICI, GEOGRAFICI E ARTISTICI"
Ricercatore,ADORNI Daniela,F,TORINO,Lettere e Filosofia,11/A3,Dip. STUDI STORICI
Associato confermato,ADORNO Salvatore,M,CATANIA,,11/A3,Dip. Scienze Umanistiche
Associato confermato,AGOSTINI Filiberto,M,PADOVA,Scienze Politiche,11/A3,"Dip. SCIENZE POLITICHE, GIURIDICHE E STUDI INTERNAZIONALI SPGI"
Ricercatore non confermato,ALBANESE Giulia,F,PADOVA,Lettere e Filosofia,11/A3,Dip. STORIA
Ricercatore non confermato,ALBERGONI Gianluca,M,PAVIA,,11/A3,Dip. MUSICOLOGIA E BENI CULTURALI
Associato confermato,AMATO Pasquale,M,MESSINA,Scienze Politiche,11/A3,Dip. STUDI EUROPEI E MEDITERRANEI
Associato confermato,ANANIA Francesca Maria,F,TUSCIA,,11/A3,"Dip. Studi linguistico-letterari, storico-filosofici e giuridici"
Associato confermato,ANDREUCCI Franco,M,PISA,Lettere e Filosofia,11/A3,Dip. STORIA
Ordinario,ANTONIOLI Maurizio,M,MILANO,Scienze Politiche,11/A3,Dip. STORIA DELLA SOCIETA' E DELLE ISTITUZIONI
Associato non confermato,ARISI ROTA Arianna,F,PAVIA,Scienze Politiche,11/A3,Dip. SCIENZE POLITICHE E SOCIALI
Ricercatore,ATTORRE Lucio,M,BASILICATA,Lettere e Filosofia,11/A3,"Dip. SCIENZE STORICHE, LINGUISTICHE ED ANTROPOLOGICHE"
Ordinario,ATZENI Francesco,M,CAGLIARI,Lettere e Filosofia,11/A3,"Dip. STUDI STORICI, GEOGRAFICI E ARTISTICI"
Associato confermato,AUDENINO Patrizia,F,MILANO,Scienze Politiche,11/A3,Dip. STORIA DELLA SOCIETA' E DELLE ISTITUZIONI
Ricercatore non confermato,AZARA Liliosa,F,ROMA TRE,Scienze della Formazione,11/A3,"Dip. STUDI DEI PROCESSI FORMATIVI, CULTURALI E INTERCULTURALI NELLA SOCIETA' CONTEMPORANEA"
Ricercatore,BAGLIO Antonino,M,MESSINA,Lettere e Filosofia,11/A3,Dip. STUDI SULLA CIVILTA' MODERNA E LA TRADIZIONE CLASSICA
Associato confermato,BAIONI Massimo,M,SIENA,Lettere e Filosofia di Arezzo,11/A3,"Dip. SCIENZE STORICO-SOCIALI,FILOSOFICHE E DELLA FORMAZIONE (DISSFF)"
Associato confermato,BALDISSARA Luca,M,PISA,Lettere e Filosofia,11/A3,Dip. STORIA
Ordinario,BALLINI Pier Luigi,M,FIRENZE,Scienze Politiche,11/A3,Dip. STUDI SULLO STATO
Ordinario,BALZANI Roberto,M,BOLOGNA,Conservazione dei Beni Culturali,11/A3,"Dip. DISCIPLINE STORICHE, ANTROPOLOGICHE E GEOGRAFICHE"
Ordinario,BANTI Alberto Mario,M,PISA,Lettere e Filosofia,11/A3,Dip. STORIA
Ricercatore non confermato,BARAVELLI Andrea,M,FERRARA,Lettere e Filosofia,11/A3,Dip. SCIENZE STORICHE
Ordinario,BARBAGALLO Francesco,M,"NAPOLI ""Federico II""",Lettere e Filosofia,11/A3,Dip. DISCIPLINE STORICHE
Ricercatore,BARBALACE Giuseppe,M,ROMA TRE,Lettere e Filosofia,11/A3,"Dip. STUDI STORICI,GEOGRAFICI E ANTROPOLOGICI"
Ricercatore non confermato,BARDELLI Daniele,M,Cattolica del Sacro Cuore,Scienze della Formazione,11/A3,"Dip. STORIA DELL'ECONOMIA, DELLA SOCIETA' E DI SCIENZE DEL TERRITORIO "" MARIO ROMANI"""
Ricercatore,BARIS Tommaso,M,PALERMO,Scienze Politiche,11/A3,"Dip. STUDI EUROPEI E DELLA INTEGRAZIONE INTERNAZIONALE. DIRITTI, ECONOMIA, MANAGEMENT, STORIA, LINGUE E CULTURE (D.E.M.S.)"
Ordinario,BARONE Giuseppe,M,CATANIA,Scienze Politiche,11/A3,Dip. ANALISI DEI PROCESSI POLITICI SOCIALI ED ISTITUZIONALI
Associato confermato,BARSANTI Danilo,M,PISA,Scienze Politiche,11/A3,Dip. SCIENZE POLITICHE E SOCIALI
Ricercatore non confermato,BARTOLINI Francesco,M,MACERATA,Scienze della Formazione,11/A3,Dip. SCIENZE DELL'EDUCAZIONE E DELLA FORMAZIONE
Ricercatore,BARTOLONI Stefania,F,ROMA TRE,Scienze Politiche,11/A3,Dip. STUDI INTERNAZIONALI
Associato confermato,BASSO Rosanna,F,SALENTO,Lingue e Letterature Straniere,11/A3,Dip. STUDI STORICI DAL MEDIOEVO ALL'ETA' CONTEMPORANEA
Ordinario,BATTAGLIA Rosario,M,MESSINA,Scienze Politiche,11/A3,"Dip. SCIENZE GIURIDICHE, STORICHE E POLITICHE"
Ordinario,BATTELLI Giuseppe,M,TRIESTE,Scienze della Formazione,11/A3,Dip. STUDI UMANISTICI
Ricercatore,BATTENTE Saverio Luigi,M,SIENA,Scienze Politiche,11/A3,"Dip. SCIENZE STORICHE, GIURIDICHE, POLITICHE E SOCIALI"
Ordinario,BATTINI Michele,M,PISA,Lettere e Filosofia,11/A3,Dip. STORIA
Ordinario,BELARDINELLI Mario,M,ROMA TRE,Lettere e Filosofia,11/A3,"Dip. STUDI STORICI,GEOGRAFICI E ANTROPOLOGICI"
Ricercatore,BELLASSAI Alessandro,M,BOLOGNA,Sc. Sup. Lingue Mod. Interpreti e Traduttori,11/A3,"Dip. STUDI INTERDISCIPLINARI SU TRADUZIONE, LINGUE E CULTURE"
Ricercatore non confermato,BENADUSI Lorenzo,M,BERGAMO,Scienze Umanistiche,11/A3,"Dip. LETTERE, ARTI E MULTIMEDIALITÃ"
Ricercatore a t.d. (art.1 comma 14 L. 230/05),BERARDI Silvio,M,UNICUSANO - Telematica Roma,Scienze Politiche,,Dip. DIPARTIMENTO UNICUSANO
Ricercatore,BERRINO Annunziata,F,"NAPOLI ""Federico II""",Lettere e Filosofia,11/A3,Dip. DISCIPLINE STORICHE
Associato confermato,BERTA Giuseppe,M,Bocconi MILANO,Economia,11/A3,Dip. ANALISI DELLE POLITICHE E MANAGEMENT PUBBLICO (PAM)
Ricercatore non confermato,BERTAGNA Federica,F,VERONA,,11/A3,"Dip. Tempo, spazio, immagine, societa'"
Associato confermato,BERTELLA FARNETTI Paolo,M,MODENA e REGGIO EMILIA,"Economia ""Marco Biagi""",11/A3,Dip. ECONOMIA POLITICA
Ordinario,BERTI Giampietro,M,PADOVA,Scienze della Formazione,11/A3,Dip. STORIA
Associato confermato,BERTINI Fabio,M,FIRENZE,Scienze Politiche,11/A3,Dip. STUDI SULLO STATO
Associato confermato,BERTUCELLI Lorenzo,M,MODENA e REGGIO EMILIA,Lettere e Filosofia,11/A3,Dip. SCIENZE DEL LINGUAGGIO E DELLA CULTURA
Associato confermato,BETRI Maria Luisa,F,MILANO,Lettere e Filosofia,11/A3,"Dip. SCIENZE DELLA STORIA E DELLA DOCUMENTAZIONE STORICA (MEDIOEVO, ETA' MODERNA, ETA' CONTEMPORANEA)"
Ricercatore,BETTA Emanuele,M,"ROMA ""La Sapienza""",Filosof. Lett. Sc.Umanistiche e St.Orientali (*),11/A3,"Dip. STORIA, CULTURE, RELIGIONI"
Ordinario,BEVILACQUA Pietro,M,"ROMA ""La Sapienza""",Filosof. Lett. Sc.Umanistiche e St.Orientali (*),11/A3,"Dip. STORIA, CULTURE, RELIGIONI"
Ricercatore,BIAGINI Furio,M,SALENTO,Lingue e Letterature Straniere,11/A3,Dip. FILOLOGIA CLASSICA E SCIENZE FILOSOFICHE
Associato confermato,BIANCHI Bruna,F,"""Ca' Foscari"" VENEZIA",,11/A3,Dip. Studi Linguistici e Culturali Comparati
Associato confermato,BIANCHI Ornella,F,BARI,Scienze Politiche,11/A3,"Dip. FILOSOFIA,LETTERATURA,STORIA E SCIENZE SOCIALI (FLESS)"
Ricercatore,BIANCHI Roberto,M,FIRENZE,Lettere e Filosofia,11/A3,Dip. STUDI STORICI E GEOGRAFICI
Associato confermato,BIOCCA Dario,M,PERUGIA,Scienze Politiche,11/A3,Dip. SCIENZE STORICHE
Ricercatore,BLANDO Antonino,M,PALERMO,Scienze Politiche,11/A3,"Dip. FIERI-AGLAIA, FILOSOFIA, FILOLOGIA, ARTI, STORIA, CRITICA DEI SAPERI"
Ordinario,BOCCI Maria,F,Cattolica del Sacro Cuore,Scienze della Formazione,11/A3,"Dip. STORIA DELL'ECONOMIA, DELLA SOCIETA' E DI SCIENZE DEL TERRITORIO "" MARIO ROMANI"""
Ricercatore a t.d. (art.1 comma 14 L. 230/05),BONFRESCHI Lucia,F,Scuola IMT - LUCCA,Altre Strutture,11/A3,Dip. ECONOMICS AND INSTITUTIONAL CHANGE
Ordinario,BONGIOVANNI Bruno,M,TORINO,Lettere e Filosofia,11/A3,"Dip. CULTURE, POLITICA E SOCIETA'"
Ricercatore a t.d. (art.1 comma 14 L. 230/05),BONOMO Bruno,M,"ROMA ""La Sapienza""",,,"Dip. STORIA, CULTURE, RELIGIONI"
Ricercatore,BONOMO Margherita,F,CATANIA,Scienze Politiche,11/A3,Dip. ANALISI DEI PROCESSI POLITICI SOCIALI ED ISTITUZIONALI
Ricercatore,BORGOGNI Massimo,M,SIENA,Scienze Politiche,11/A3,"Dip. SCIENZE STORICHE, GIURIDICHE, POLITICHE E SOCIALI"
Ricercatore,BORRUSO Paolo,M,Cattolica del Sacro Cuore,Lettere e Filosofia,11/A3,"Dip. STORIA, ARCHEOLOGIA E STORIA DELLâARTE"
Ordinario,BOTTI Alfonso,M,MODENA e REGGIO EMILIA,Lettere e Filosofia,11/A3,Dip. SCIENZE DEL LINGUAGGIO E DELLA CULTURA
Ricercatore,BOTTI Gabriella,F,"NAPOLI ""Federico II""",Lettere e Filosofia,11/A3,Dip. DISCIPLINE STORICHE
Associato confermato,BRACCO Barbara Roberta Anna,F,MILANO-BICOCCA,Sociologia,11/A3,Dip. SOCIOLOGIA E RICERCA SOCIALE
Ordinario,BRESSAN Edoardo,M,MACERATA,Scienze della Formazione,11/A3,Dip. SCIENZE DELL'EDUCAZIONE E DELLA FORMAZIONE
Ordinario,BREZZI Camillo,M,SIENA,Lettere e Filosofia di Arezzo,11/A3,"Dip. SCIENZE STORICO-SOCIALI,FILOSOFICHE E DELLA FORMAZIONE (DISSFF)"
Associato confermato,BRUNELLO Pietro,M,"""Ca' Foscari"" VENEZIA",,11/A3,Dip. Studi Umanistici
Ordinario,BRUTI LIBERATI Luigi,M,MILANO,Lettere e Filosofia,11/A3,"Dip. SCIENZE DELLA STORIA E DELLA DOCUMENTAZIONE STORICA (MEDIOEVO, ETA' MODERNA, ETA' CONTEMPORANEA)"
Ricercatore,CAFFARENA Fabio,M,GENOVA,Lettere e Filosofia,11/A3,"Dip. ANTICHITA', FILOSOFIA E STORIA (DAFIST)"
Straordinario,CAGLIOTI Daniela Luigia,F,"NAPOLI ""Federico II""",Scienze Politiche,11/A3,Dip. SCIENZE POLITICHE E GIURIDICHE
Ricercatore,CALANCA Daniela,F,BOLOGNA,Lettere e Filosofia,11/A3,"Dip. DISCIPLINE STORICHE, ANTROPOLOGICHE E GEOGRAFICHE"
Associato confermato,CAMBRIA Rita,F,MILANO,Lettere e Filosofia,11/A3,"Dip. SCIENZE DELLA STORIA E DELLA DOCUMENTAZIONE STORICA (MEDIOEVO, ETA' MODERNA, ETA' CONTEMPORANEA)"
Ordinario,CAMINITI Luciana,F,MESSINA,Scienze Politiche,11/A3,"Dip. SCIENZE GIURIDICHE, STORICHE E POLITICHE"
Ordinario,CAMMARANO Fulvio,M,BOLOGNA,Scienze Politiche,11/A3,"Dip. POLITICA, ISTITUZIONI, STORIA"
Associato confermato,CAMURRI Renato,M,VERONA,,11/A3,"Dip. Tempo, spazio, immagine, societa'"
Ricercatore non confermato,CANALE CAMA Francesca,F,CAMPANIA - âL. VANVITELLIâ,"Studi Politici Alta Formaz. Europea Mediter. ""Jean Monnet""",11/A3,Dip. STUDI EUROPEI E MEDITERRANEI
Ordinario,CANALI Mauro,M,CAMERINO,Giurisprudenza,11/A3,SCUOLA DI GIURISPRUDENZA
Ordinario,CANAVERO Alfredo,M,MILANO,Lettere e Filosofia,11/A3,"Dip. SCIENZE DELLA STORIA E DELLA DOCUMENTAZIONE STORICA (MEDIOEVO, ETA' MODERNA, ETA' CONTEMPORANEA)"
Ricercatore,CANCIULLO Giovanna Maria,F,CATANIA,Scienze Politiche,11/A3,Dip. ANALISI DEI PROCESSI POLITICI SOCIALI ED ISTITUZIONALI
Ricercatore,CANNELLI Riccardo,M,BARI,Scienze della Formazione,11/A3,Dip. PER LO STUDIO DELLE SOCIETA' MEDITERRANEE
Ricercatore non confermato,CAPOGRECO Carlo Spartaco,M,della CALABRIA,Lettere e Filosofia,11/A3,Dip. LINGUISTICA
Associato confermato,CAPOZZI Eugenio,M,Suor Orsola Benincasa - NAPOLI,Lettere,11/A3,Dip. ISTITUTO UNIVERSITARIO SUOR ORSOLA BENINCASA
Associato confermato,CAPPELLI Vittorio Maria,M,della CALABRIA,Economia,11/A3,Dip. SOCIOLOGIA E SCIENZA POLITICA
Ricercatore a t.d. (art.1 comma 14 L. 230/05),CAPPERUCCI Vera,F,"LUISS ""Guido Carli"" - ROMA",,11/A3,Dip. SCIENZE POLITICHE
Ordinario,CAPUZZO Ester,F,"ROMA ""La Sapienza""",Filosof. Lett. Sc.Umanistiche e St.Orientali (*),11/A3,"Dip. SCIENZE DOCUMENTARIE, LINGUISTICO-FILOLOGICHE E GEOGRAFICHE"
Associato non confermato,CAPUZZO Paolo,M,BOLOGNA,Lettere e Filosofia,11/A3,"Dip. DISCIPLINE STORICHE, ANTROPOLOGICHE E GEOGRAFICHE"
Ordinario,CARDINI Antonio,M,SIENA,Scienze Politiche,11/A3,"Dip. SCIENZE STORICHE, GIURIDICHE, POLITICHE E SOCIALI"
Associato confermato,CAREDDA Giorgio,M,"ROMA ""La Sapienza""",Filosof. Lett. Sc.Umanistiche e St.Orientali (*),11/A3,"Dip. STORIA, CULTURE, RELIGIONI"
Ricercatore,CARLI Maddalena,F,TERAMO,Scienze Politiche,11/A3,Dip. STORIA E CRITICA DELLA POLITICA
Ricercatore non confermato,CAROPPO Elisabetta,F,SALENTO,Lettere e Filosofia,11/A3,Dip. STUDI STORICI DAL MEDIOEVO ALL'ETA' CONTEMPORANEA
Ricercatore,CAROTENUTO Gennaro,M,MACERATA,Scienze della Comunicazione,11/A3,"Dip. SCIENZE STORICHE, DOCUMENTARIE, ARTISTICHE E DEL TERRITORIO"
Ricercatore,CARUSI Paolo,M,ROMA TRE,Lettere e Filosofia,11/A3,"Dip. STUDI STORICI,GEOGRAFICI E ANTROPOLOGICI"
Associato confermato,CASALINI Maria,F,FIRENZE,Lettere e Filosofia,11/A3,Dip. STUDI STORICI E GEOGRAFICI
Ricercatore,CASELLATO Alessandro,M,"""Ca' Foscari"" VENEZIA",,11/A3,Dip. Studi Umanistici
Ordinario,CASMIRRI Silvana,F,CASSINO e LAZIO MERIDIONALE,Lettere e Filosofia,11/A3,Dip. FILOLOGIA E STORIA
Ricercatore non confermato,CASSATA Francesco,M,GENOVA,Lettere e Filosofia,11/A3,"Dip. ANTICHITA', FILOSOFIA E STORIA (DAFIST)"
Ricercatore,CASTAGNOLI Adriana,F,TORINO,Scienze della Formazione,11/A3,Dip. FILOSOFIA E SCIENZE DELL'EDUCAZIONE
Ricercatore,CASTELLANO Carolina,F,"NAPOLI ""Federico II""",Sociologia,11/A3,Dip. SOCIOLOGIA
Ordinario,CASULA Carlo Felice,M,ROMA TRE,Scienze della Formazione,11/A3,"Dip. STUDI DEI PROCESSI FORMATIVI, CULTURALI E INTERCULTURALI NELLA SOCIETA' CONTEMPORANEA"
Ricercatore,CATALAN Tullia,F,TRIESTE,Lettere e Filosofia,11/A3,Dip. STUDI UMANISTICI
Ordinario,CAVALLO Pietro,M,SALERNO,Lettere e Filosofia,11/A3,"Dip. STUDI UMANISTICI(FILOLOGICI,LETTERARI,LINGUISTICI E STORICI)/DISPSUM"
Associato confermato,CAVAZZA Stefano,M,BOLOGNA,Scienze Politiche,11/A3,"Dip. POLITICA, ISTITUZIONI, STORIA"
Ricercatore,CAVICCHIOLI Silvia,F,TORINO,Lettere e Filosofia,11/A3,Dip. STUDI STORICI
Ordinario,CECCUTI Cosimo,M,FIRENZE,Scienze Politiche,11/A3,Dip. STUDI SULLO STATO
Ricercatore,CECI Lucia,F,"ROMA ""Tor Vergata""",Lettere e Filosofia,11/A3,Dip. STORIA
Ricercatore non confermato,CERASI Laura,F,GENOVA,Scienze della Formazione,11/A3,Dip. SCIENZE DELLA FORMAZIONE (DISFOR)
Associato confermato,CERCHIA Giovanni,M,MOLISE,Economia,11/A3,"Dip. SCIENZE UMANE,STORICHE E SOCIALI"
Associato confermato,CHERUBINI Donatella,F,SIENA,Scienze Politiche,11/A3,"Dip. SCIENZE STORICHE, GIURIDICHE, POLITICHE E SOCIALI"
Ricercatore,CHIARA Luigi,M,MESSINA,Scienze Politiche,11/A3,"Dip. SCIENZE GIURIDICHE, STORICHE E POLITICHE"
Ordinario,CHIARINI Roberto,M,MILANO,Scienze Politiche,11/A3,Dip. STORIA DELLA SOCIETA' E DELLE ISTITUZIONI
Associato confermato,CIAMPANI Andrea,M,"Libera Univ. ""Maria SS.Assunta""-LUMSA - ROMA",,11/A3,"Dip. Scienze economiche, politiche e delle lingue moderne"
Ordinario,CIAMPI Gabriella,F,TUSCIA,,11/A3,Dip. Scienze dei beni culturali
Associato non confermato,CIGLIANO Giovanna,F,"NAPOLI ""Federico II""",Lettere e Filosofia,11/A3,Dip. DISCIPLINE STORICHE
Ricercatore,CINOTTO Simone,M,SCIENZE GASTRONOMICHE,Scienze Gastronomiche,11/A3,Dip. UNIVERSITA' DEGLI STUDI DI SCIENZE GASTRONOMICHE
Ordinario,CIUFFOLETTI Zeffiro,M,FIRENZE,Lettere e Filosofia,11/A3,Dip. STUDI STORICI E GEOGRAFICI
Ordinario,CIVILE Giuseppe,M,"""L'Orientale"" di NAPOLI",Scienze Politiche,11/A3,Dip. SCIENZE UMANE E SOCIALI
Ordinario,COLARIZI Simona,F,"ROMA ""La Sapienza""","Sc. Politiche, Sociologia, Comunicazione (*)",11/A3,Dip. COMUNICAZIONE E RICERCA SOCIALE
Associato non confermato,CONTE Alfonso,M,SALERNO,Scienze Politiche,11/A3,"Dip. SCIENZE POLITICHE, SOCIALI E DELLA COMUNICAZIONE/SPSC"
Associato confermato,CONTI Fulvio,M,FIRENZE,Scienze Politiche,11/A3,Dip. STUDI SULLO STATO
Associato confermato,CONTI Giuseppe,M,"ROMA ""La Sapienza""","Sc. Politiche, Sociologia, Comunicazione (*)",11/A3,Dip. SCIENZE POLITICHE
Ordinario,CORNER Paul Richard,M,SIENA,Scienze Politiche,11/A3,"Dip. SCIENZE STORICHE, GIURIDICHE, POLITICHE E SOCIALI"
Ordinario,CORNI Gustavo,M,TRENTO,Lettere e Filosofia,11/A3,Dip. SOCIOLOGIA E RICERCA SOCIALE
Straordinario,CORTI Paola,F,TORINO,Scienze della Formazione,11/A3,Dip. FILOSOFIA E SCIENZE DELL'EDUCAZIONE
Ordinario,CORVAGLIA Ennio,M,BARI,Lettere e Filosofia,11/A3,"Dip. FILOSOFIA,LETTERATURA,STORIA E SCIENZE SOCIALI (FLESS)"
Ricercatore non confermato,COSTANTINI Emanuela,F,PERUGIA,Lettere e Filosofia,11/A3,Dip. SCIENZE STORICHE
Ordinario,CRAINZ Guido,M,TERAMO,Scienze della Comunicazione,11/A3,Dip. SCIENZE DELLA COMUNICAZIONE
Associato confermato,CURLI Barbara,F,della CALABRIA,Scienze Politiche,11/A3,Dip. SOCIOLOGIA E SCIENZA POLITICA
Ricercatore,CUZZI Marco,M,MILANO,Scienze Politiche,11/A3,Dip. STORIA DELLA SOCIETA' E DELLE ISTITUZIONI
Ordinario,D'AGATA Raffaele,M,SASSARI,Lingue e Letterature Straniere,11/A3,Dip. STORIA
Ricercatore,D'ALESSIO Giovanni,M,"NAPOLI ""Federico II""",Scienze Politiche,11/A3,Dip. SCIENZE POLITICHE E GIURIDICHE
Associato non confermato,D'ANGELO Augusto,M,"ROMA ""La Sapienza""","Sc. Politiche, Sociologia, Comunicazione (*)",11/A3,Dip. SCIENZE POLITICHE
Ricercatore,D'ANGELO Giuseppe,M,SALERNO,Scienze della Formazione,11/A3,"Dip. SCIENZE UMANE, FILOSOFICHE E DELLA FORMAZIONE/DISUFF"
Ordinario,D'ANGELO Lucio,M,PERUGIA,Scienze della Formazione,11/A3,Dip. SCIENZE UMANE E DELLA FORMAZIONE
Ricercatore,D'AURIA Chiara,F,SALERNO,Scienze Politiche,11/A3,"Dip. SCIENZE POLITICHE, SOCIALI E DELLA COMUNICAZIONE/SPSC"
Associato confermato,D'ELIA Costanza,F,CASSINO e LAZIO MERIDIONALE,Lettere e Filosofia,11/A3,Dip. FILOLOGIA E STORIA
Associato non confermato,D'ONOFRIO Andrea,M,"NAPOLI ""Federico II""",Lettere e Filosofia,11/A3,Dip. DISCIPLINE STORICHE
Ricercatore,DADA' Adriana,F,FIRENZE,Lettere e Filosofia,11/A3,Dip. STUDI STORICI E GEOGRAFICI
Associato confermato,DE BENEDETTI Augusto,M,BOLOGNA,Lettere e Filosofia,11/A3,"Dip. DISCIPLINE STORICHE, ANTROPOLOGICHE E GEOGRAFICHE"
Ordinario,DE BERNARDI Alberto,M,BOLOGNA,Lettere e Filosofia,11/A3,"Dip. DISCIPLINE STORICHE, ANTROPOLOGICHE E GEOGRAFICHE"
Ricercatore,DE CESARIS Valerio,M,Stranieri di PERUGIA,Lingua e Cultura Italiana,11/A3,Dip. CULTURE COMPARATE
Ricercatore,DE DONNO Daria,F,SALENTO,Beni Culturali,11/A3,Dip. STUDI STORICI DAL MEDIOEVO ALL'ETA' CONTEMPORANEA
Straordinario,DE FORT Ester,F,TORINO,Lettere e Filosofia,11/A3,Dip. STUDI STORICI
Ordinario,DE LORENZO Renata,F,"NAPOLI ""Federico II""",Lettere e Filosofia,11/A3,Dip. DISCIPLINE STORICHE
Ordinario,DE LUNA Giovanni,M,TORINO,Scienze della Formazione,11/A3,Dip. STUDI STORICI
Associato confermato,DE MARCO Paolo,M,CAMPANIA - âL. VANVITELLIâ,Lettere e Filosofia,11/A3,Dip. STUDIO DELLE COMPONENTI CULTURALI DEL TERRITORIO
Ordinario,DE MARCO Vittorio,M,SALENTO,"Scienze Sociali, Politiche e del Territorio",11/A3,Dip. SCIENZE SOCIALI E DELLA COMUNICAZIONE
Associato confermato,DE NICOLO' Marco,M,CASSINO e LAZIO MERIDIONALE,Lettere e Filosofia,11/A3,Dip. FILOLOGIA E STORIA
Ricercatore,DE ROSA Ornella,F,SALERNO,Scienze della Formazione,11/A3,"Dip. SCIENZE POLITICHE, SOCIALI E DELLA COMUNICAZIONE/SPSC"
Ordinario,DEGL'INNOCENTI Maurizio,M,SIENA,Scienze Politiche,11/A3,"Dip. SCIENZE STORICHE, GIURIDICHE, POLITICHE E SOCIALI"
Ricercatore,DEGLI ESPOSTI Fabio,M,MODENA e REGGIO EMILIA,Lettere e Filosofia,11/A3,Dip. SCIENZE DEL LINGUAGGIO E DELLA CULTURA
Ricercatore,DEGLI ODDI Ippolita,F,Stranieri di PERUGIA,Lingua e Cultura Italiana,11/A3,Dip. CULTURE COMPARATE
Ricercatore,DEL ZANNA Giorgio Aldo,M,Cattolica del Sacro Cuore,Sc. Linguistiche e Letterature Straniere,11/A3,"Dip. STORIA, ARCHEOLOGIA E STORIA DELLâARTE"
Ricercatore,DELL'ERBA Nunzio,M,TORINO,Scienze Politiche,11/A3,"Dip. CULTURE, POLITICA E SOCIETA'"
Associato confermato,DELLA PENNA Carmelita,F,CHIETI-PESCARA,Scienze Sociali,11/A3,Dip. SCIENZE GIURIDICHE E SOCIALI
Ordinario,DENITTO Anna Lucia,F,SALENTO,Lettere e Filosofia,11/A3,Dip. STUDI STORICI DAL MEDIOEVO ALL'ETA' CONTEMPORANEA
Ordinario,DI CIOMMO Enrichetta,F,BARI,Scienze Politiche,11/A3,Dip. PER LO STUDIO DELLE SOCIETA' MEDITERRANEE
Ordinario,DI FEBO Giuliana,F,ROMA TRE,Lettere e Filosofia,11/A3,"Dip. STUDI STORICI,GEOGRAFICI E ANTROPOLOGICI"
Ricercatore,DI FELICE Maria Luisa,F,CAGLIARI,Lettere e Filosofia,11/A3,"Dip. STUDI STORICI, GEOGRAFICI E ARTISTICI"
Ricercatore non confermato,DI FIGLIA Matteo,M,PALERMO,Lettere e Filosofia,11/A3,"Dip. FIERI-AGLAIA, FILOSOFIA, FILOLOGIA, ARTI, STORIA, CRITICA DEI SAPERI"
Ricercatore,DI GIROLAMO Piero Nicola,M,TERAMO,Scienze della Comunicazione,11/A3,Dip. SCIENZE DELLA COMUNICAZIONE
Associato confermato,DI GREGORIO Giuseppa,F,CATANIA,Scienze Politiche,11/A3,Dip. ANALISI DEI PROCESSI POLITICI SOCIALI ED ISTITUZIONALI
Straordinario,DI NUCCI Loreto,M,PERUGIA,Scienze Politiche,11/A3,Dip. SCIENZE STORICHE
Ordinario,DOGLIANI Patrizia,F,BOLOGNA,Lettere e Filosofia,11/A3,"Dip. DISCIPLINE STORICHE, ANTROPOLOGICHE E GEOGRAFICHE"
Ricercatore,DONDI Mirco,M,BOLOGNA,Lingue e Letterature Straniere,11/A3,"Dip. DISCIPLINE STORICHE, ANTROPOLOGICHE E GEOGRAFICHE"
Ordinario,DONNO Carmelo Giovanni,M,SALENTO,Lingue e Letterature Straniere,11/A3,Dip. LINGUE E LETTERATURE STRANIERE
Ricercatore non confermato,DONNO Michele,M,BARI,Scienze della Formazione,11/A3,Dip. PER LO STUDIO DELLE SOCIETA' MEDITERRANEE
Ricercatore,ESPOSITO Assunta Rita Anna,F,"ROMA ""La Sapienza""","Sc. Politiche, Sociologia, Comunicazione (*)",11/A3,Dip. SCIENZE POLITICHE
Ordinario,FABBRI Fabio,M,ROMA TRE,Lettere e Filosofia,11/A3,"Dip. STUDI STORICI,GEOGRAFICI E ANTROPOLOGICI"
Ricercatore,FALCO Emilio,M,"ROMA ""La Sapienza""","Sc. Politiche, Sociologia, Comunicazione (*)",11/A3,Dip. SCIENZE POLITICHE
Ordinario,FASCE Ferdinando,M,GENOVA,Lettere e Filosofia,11/A3,"Dip. ANTICHITA', FILOSOFIA E STORIA (DAFIST)"
Ordinario,FATTORINI Emma,F,"ROMA ""La Sapienza""",Filosof. Lett. Sc.Umanistiche e St.Orientali (*),11/A3,"Dip. STORIA, CULTURE, RELIGIONI"
Ricercatore,FAVA Andrea,M,"ROMA ""La Sapienza""","Sc. Politiche, Sociologia, Comunicazione (*)",11/A3,Dip. SCIENZE POLITICHE
Associato confermato,FAVILLI Paolo,M,GENOVA,Scienze della Formazione,11/A3,Dip. INTERDISCIPLINARE DI SCIENZE STORICO GEOGRAFICHE E LINGUISTICO LETTERARIE DISSGELL
Ordinario,FEDELE Santi,M,MESSINA,Lettere e Filosofia,11/A3,Dip. STUDI SULLA CIVILTA' MODERNA E LA TRADIZIONE CLASSICA
Ricercatore,FERRARI Massimo,M,Cattolica del Sacro Cuore,Scienze della Formazione,11/A3,Dip. STORIA MODERNA E CONTEMPORANEA
Ricercatore,FERRARI Paolo,M,UDINE,,11/A3,Dip. Storia e Tutela dei Beni Culturali
Associato confermato,FERRETTI Maria,F,TUSCIA,,11/A3,"Dip. Studi linguistico-letterari, storico-filosofici e giuridici"
Ricercatore,FFORDE Matthew Standish,M,"Libera Univ. ""Maria SS.Assunta""-LUMSA - ROMA",,11/A3,"Dip. Scienze economiche, politiche e delle lingue moderne"
Ricercatore,FINCARDI Marco,M,"""Ca' Foscari"" VENEZIA",,11/A3,Dip. Studi Umanistici
Ricercatore,FIOCCO Gianluca,M,"ROMA ""Tor Vergata""",Lettere e Filosofia,11/A3,Dip. STORIA
Ricercatore,FIORAVANZO Monica,F,PADOVA,Lettere e Filosofia,11/A3,Dip. STORIA
Ricercatore,FIORINO Vinzia,F,PISA,Lettere e Filosofia,11/A3,Dip. STORIA
Ricercatore,FIUME Fabrizio,M,BARI,Scienze Politiche,11/A3,Dip. PER LO STUDIO DELLE SOCIETA' MEDITERRANEE
Ricercatore,FLORES Nadia,F,ROMA TRE,Lettere e Filosofia,11/A3,"Dip. STUDI STORICI,GEOGRAFICI E ANTROPOLOGICI"
Ricercatore,FOCARDI Filippo,M,PADOVA,Scienze Politiche,11/A3,"Dip. SCIENZE POLITICHE, GIURIDICHE E STUDI INTERNAZIONALI SPGI"
Ricercatore non confermato,FOCARDI Giovanni,M,PADOVA,Lettere e Filosofia,11/A3,"Dip. SCIENZE STORICHE, GEOGRAFICHE E DELL'ANTICHITA' (DISSGEA)"
Associato confermato,FOIS Giuseppa Carmela Rita,F,SASSARI,Lettere e Filosofia,11/A3,Dip. STORIA
Ordinario,FORMIGONI Guido,M,IULM - MILANO,"Turismo, Eventi e Territorio",11/A3,"Dip. STUDI CLASSICI, UMANISTICI E GEOGRAFICI"
Ricercatore,FORNO Mauro,M,TORINO,Scienze Politiche,11/A3,Dip. STUDI STORICI
Ricercatore,FRANCIA Enrico,M,PADOVA,Lettere e Filosofia,11/A3,Dip. STORIA
Associato confermato,FRANCO Silvano,M,CASSINO e LAZIO MERIDIONALE,Scienze Motorie,11/A3,Dip. SCIENZE MOTORIE E DELLA SALUTE
Ordinario,FRANZINA Emilio,M,VERONA,,11/A3,"Dip. Tempo, spazio, immagine, societa'"
Ricercatore non confermato,FULVETTI Gianluca,M,PISA,,11/A3,Dip. CIVILTÃ E FORME DEL SAPERE
Ordinario,FUMIAN Carlo,M,PADOVA,Lettere e Filosofia,11/A3,"Dip. SCIENZE STORICHE, GEOGRAFICHE E DELL'ANTICHITA' (DISSGEA)"
Ordinario,FURIOZZI Gian Biagio,M,PERUGIA,Scienze della Formazione,11/A3,Dip. SCIENZE UMANE E DELLA FORMAZIONE
Associato confermato,GABRIELLI Gloria,F,"ROMA ""La Sapienza""","Sc. Politiche, Sociologia, Comunicazione (*)",11/A3,Dip. COMUNICAZIONE E RICERCA SOCIALE
Ordinario,GABRIELLI Patrizia,F,SIENA,Lettere e Filosofia di Arezzo,11/A3,"Dip. SCIENZE STORICO-SOCIALI,FILOSOFICHE E DELLA FORMAZIONE (DISSFF)"
Associato confermato,GAGLIANI Dianella,F,BOLOGNA,Lettere e Filosofia,11/A3,"Dip. DISCIPLINE STORICHE, ANTROPOLOGICHE E GEOGRAFICHE"
Ricercatore,GALFRE' Monica,F,FIRENZE,Lettere e Filosofia,11/A3,Dip. STUDI STORICI E GEOGRAFICI
Ordinario,GALLI DELLA LOGGIA Ernesto,M,SUM - Ist. Italiano di SCIENZE UMANE FIRENZE,Altre Strutture,11/A3,Dip. ISTITUTO ITALIANO DI SCIENZE UMANE DI FIRENZE
Ordinario,GARIGLIO Bartolomeo,M,TORINO,Scienze Politiche,11/A3,Dip. STUDI STORICI
Associato confermato,GEMELLI Giuliana,F,BOLOGNA,Lettere e Filosofia,11/A3,"Dip. DISCIPLINE STORICHE, ANTROPOLOGICHE E GEOGRAFICHE"
Ricercatore,GENOVESI Piergiovanni,M,PARMA,Lettere e Filosofia,11/A3,Dip. STORIA
Associato confermato,GENTILONI SILVERI Umberto,M,TERAMO,Scienze Politiche,11/A3,"Dip. STORIA, CULTURE, RELIGIONI"
Associato confermato,GERVASONI Marco Angelo,M,MOLISE,Scienze Umane e Sociali,11/A3,"Dip. SCIENZE UMANE,STORICHE E SOCIALI"
Ricercatore,GHEDA Paolo,M,VALLE D'AOSTA,Scienze Politiche e Relazioni Internazionali,11/A3,Dip. VALLE D'AOSTA
Ordinario,GIANNOTTI Giampaolo,M,Urbino Carlo Bo,Sociologia,11/A3,"Dip. STUDI INTERNAZIONALI. STORIA, LINGUE, CULTURE"
Ricercatore,GIANNULI Sabino Aldo,M,MILANO,Scienze Politiche,11/A3,Dip. STORIA DELLA SOCIETA' E DELLE ISTITUZIONI
Associato confermato,GIGLI Ada Carla,F,MILANO,Scienze Politiche,11/A3,Dip. STORIA DELLA SOCIETA' E DELLE ISTITUZIONI
Associato confermato,GILBERT Mark Frederick,M,TRENTO,Sociologia,11/A3,Dip. SOCIOLOGIA E RICERCA SOCIALE
Ricercatore,GIN Emilio,M,SALERNO,Scienze della Formazione,11/A3,"Dip. SCIENZE UMANE, FILOSOFICHE E DELLA FORMAZIONE/DISUFF"
Ordinario,GINSBORG Paul Anthony,M,FIRENZE,Lettere e Filosofia,11/A3,Dip. STUDI STORICI E GEOGRAFICI
Ordinario,GIOVAGNOLI Agostino,M,Cattolica del Sacro Cuore,Lettere e Filosofia,11/A3,"Dip. STORIA, ARCHEOLOGIA E STORIA DELLâARTE"
Ricercatore non confermato,GIOVANNINI Paolo,M,CAMERINO,Giurisprudenza,11/A3,SCUOLA DI GIURISPRUDENZA
Ricercatore a t.d. (art. 24 comma 3-a L. 240/10),GISSI Alessandra,F,"""L'Orientale"" di NAPOLI",,11/A3,Dip. SCIENZE UMANE E SOCIALI
Ricercatore non confermato,GIUNIPERO Elisa Maria,F,Cattolica del Sacro Cuore,Lettere e Filosofia,11/A3,"Dip. STORIA, ARCHEOLOGIA E STORIA DELLâARTE"
Ricercatore,GIUSTI Maria Teresa,F,CHIETI-PESCARA,Scienze Sociali,11/A3,"Dip. LETTERE, ARTI E SCIENZE SOCIALI"
Ordinario,GOZZINI Giovanni,M,SIENA,Lettere e Filosofia,11/A3,Dip. SCIENZE DELLA COMUNICAZIONE
Associato confermato,GRANATA Ivano,M,MILANO,Lettere e Filosofia,11/A3,"Dip. SCIENZE DELLA STORIA E DELLA DOCUMENTAZIONE STORICA (MEDIOEVO, ETA' MODERNA, ETA' CONTEMPORANEA)"
Ricercatore a t.d. (art.1 comma 14 L. 230/05),GRANATA Sebastiano Angelo Alessandro,M,CATANIA,,11/A3,Dip. SCIENZE POLITICHE E SOCIALI
Associato confermato,GRANDI Casimira,F,TRENTO,Sociologia,11/A3,Dip. SOCIOLOGIA E RICERCA SOCIALE
Ricercatore,GRANOZZI Luciano,M,CATANIA,,11/A3,Dip. Scienze Umanistiche
Ordinario,GRAZIOSI Andrea,M,"NAPOLI ""Federico II""",Scienze Politiche,11/A3,Dip. SCIENZE POLITICHE E GIURIDICHE
Ordinario,GRECO Giovanni,M,BOLOGNA,Scienze della Formazione,11/A3,"Dip. DISCIPLINE STORICHE, ANTROPOLOGICHE E GEOGRAFICHE"
Ordinario,GRIBAUDI Maria Gabriella,F,"NAPOLI ""Federico II""",Sociologia,11/A3,Dip. SOCIOLOGIA
Ricercatore,GUALTIERI Roberto,M,"ROMA ""La Sapienza""",Filosof. Lett. Sc.Umanistiche e St.Orientali (*),11/A3,"Dip. STORIA, CULTURE, RELIGIONI"
Associato confermato,GUARNIERI Patrizia,F,FIRENZE,Psicologia,11/A3,Dip. PSICOLOGIA
Ricercatore,GUAZZALOCA Giulia,F,BOLOGNA,"Scienze Politiche II ""Roberto Ruffilli""",11/A3,"Dip. POLITICA, ISTITUZIONI, STORIA"
Associato confermato,GUIDI Laura,F,"NAPOLI ""Federico II""",Lettere e Filosofia,11/A3,Dip. DISCIPLINE STORICHE
Ricercatore,GUISO Andrea,M,"ROMA ""La Sapienza""","Sc. Politiche, Sociologia, Comunicazione (*)",11/A3,Dip. COMUNICAZIONE E RICERCA SOCIALE
Ordinario,IMPAGLIAZZO Marco,M,Stranieri di PERUGIA,Lingua e Cultura Italiana,11/A3,Dip. CULTURE COMPARATE
Associato confermato,ISASTIA Anna Maria,F,"ROMA ""La Sapienza""",Filosof. Lett. Sc.Umanistiche e St.Orientali (*),11/A3,"Dip. STORIA, CULTURE, RELIGIONI"
Associato confermato,IUSO Pasquale,M,TERAMO,Scienze Politiche,11/A3,"Dip. STUDI GIURIDICI,COMPARATI,INTERNAZIONALI ED EUROPEI"
Ordinario,JOCTEAU Giancarlo,M,TORINO,Lettere e Filosofia,11/A3,Dip. STUDI STORICI
Associato confermato,LA BELLA Gianni,M,MODENA e REGGIO EMILIA,Scienze della Formazione,11/A3,Dip. EDUCAZIONE E SCIENZE UMANE
Ricercatore,LA ROSA Giorgio,M,INSUBRIA,,11/A3,"Dip. Diritto, Economia e Culture"
Ricercatore,LA ROVERE Luca,M,PERUGIA,Lettere e Filosofia,11/A3,Dip. SCIENZE STORICHE
Associato confermato,LABANCA Nicola,M,SIENA,Lettere e Filosofia,11/A3,Dip. SCIENZE DELLA COMUNICAZIONE
Ordinario,LANDUYT Ariane,F,SIENA,Scienze Politiche,11/A3,"Dip. SCIENZE STORICHE, GIURIDICHE, POLITICHE E SOCIALI"
Associato confermato,LASCHI Giuliana,F,BOLOGNA,"Scienze Politiche II ""Roberto Ruffilli""",11/A3,"Dip. POLITICA, ISTITUZIONI, STORIA"
Associato confermato,LAZZARETTO Alba,F,PADOVA,Scienze Politiche,11/A3,Dip. STUDI STORICI E POLITICI
Ordinario,LAZZARINI Antonio,M,PADOVA,Scienze Politiche,11/A3,"Dip. SCIENZE POLITICHE, GIURIDICHE E STUDI INTERNAZIONALI SPGI"
Ordinario,LEVI Fabio,M,TORINO,Lettere e Filosofia,11/A3,Dip. STUDI STORICI
Ricercatore a t.d. (art.1 comma 14 L. 230/05),LEVI Guido,M,GENOVA,,11/A3,Dip. SCIENZE POLITICHE (DISPO)
Ricercatore a t.d. (art.1 comma 14 L. 230/05),LEVIS SULLAM Simon,M,"""Ca' Foscari"" VENEZIA",,11/A3,Dip. STUDI UMANISTICI
Ricercatore,LOMBARDI Pietro Angelo,M,PAVIA,Lettere e Filosofia,11/A3,Dip. STUDI UMANISTICI
Ordinario,LOMBARDO Antonio,M,"ROMA ""Tor Vergata""",Medicina e Chirurgia,11/A3,Dip. STORIA
Ricercatore,LONGONI Giuseppe Maria,M,MILANO,Scienze Politiche,11/A3,Dip. STORIA DELLA SOCIETA' E DELLE ISTITUZIONI
Straordinario,LONNI Adalgisa,F,TORINO,Lingue e Letterature Straniere,11/A3,Dip. LINGUE E LETTERATURE STRANIERE E CULTURE MODERNE
Ricercatore,LORENZINI Sara,F,TRENTO,Lettere e Filosofia,11/A3,"Dip. FILOSOFIA, STORIA E BENI CULTURALI"
Ricercatore non confermato,LORETO Fabrizio,M,TORINO,Scienze Politiche,11/A3,Dip. STUDI STORICI
Ordinario,LUPO Salvatore,M,PALERMO,Lettere e Filosofia,11/A3,"Dip. FIERI-AGLAIA, FILOSOFIA, FILOLOGIA, ARTI, STORIA, CRITICA DEI SAPERI"
Associato confermato,LUSERONI Giovanni,M,MOLISE,Scienze Umane e Sociali,11/A3,"Dip. SCIENZE UMANE,STORICHE E SOCIALI"
Associato confermato,LUSSANA Fiamma,F,SASSARI,Lingue e Letterature Straniere,11/A3,Dip. STORIA
Ricercatore,MACHETTI Giulio,M,"""L'Orientale"" di NAPOLI",Scienze Politiche,11/A3,Dip. SCIENZE UMANE E SOCIALI
Ordinario,MACRY Paolo,M,"NAPOLI ""Federico II""",Lettere e Filosofia,11/A3,Dip. DISCIPLINE STORICHE
Associato confermato,MAGGI Stefano,M,SIENA,Scienze Politiche,11/A3,"Dip. SCIENZE STORICHE, GIURIDICHE, POLITICHE E SOCIALI"
Associato confermato,MAGLIANI Stefania,F,PERUGIA,Scienze della Formazione,11/A3,Dip. SCIENZE UMANE E DELLA FORMAZIONE
Ordinario,MAGNARELLI Paola,F,MACERATA,Scienze della Comunicazione,11/A3,"Dip. SCIENZE STORICHE, DOCUMENTARIE, ARTISTICHE E DEL TERRITORIO"
Ricercatore,MAIDA Bruno Luca,M,TORINO,Scienze della Formazione,11/A3,Dip. STUDI STORICI
Associato confermato,MAIONE Giuseppe,M,BOLOGNA,Scienze Politiche,11/A3,"Dip. POLITICA, ISTITUZIONI, STORIA"
Ordinario,MALATESTA Maria,F,BOLOGNA,Lettere e Filosofia,11/A3,"Dip. DISCIPLINE STORICHE, ANTROPOLOGICHE E GEOGRAFICHE"
Ricercatore,MALFITANO Alberto,M,BOLOGNA,Lettere e Filosofia,11/A3,"Dip. DISCIPLINE STORICHE, ANTROPOLOGICHE E GEOGRAFICHE"
Ricercatore,MANA Emma,F,TORINO,Lettere e Filosofia,11/A3,Dip. STUDI STORICI
Ordinario,MANGIAMELI SCROFANI Rosario,M,CATANIA,Scienze Politiche,11/A3,Dip. ANALISI DEI PROCESSI POLITICI SOCIALI ED ISTITUZIONALI
Associato confermato,MANTELLI Brunello,M,TORINO,Lettere e Filosofia,11/A3,"Dip. CULTURE, POLITICA E SOCIETA'"
Ricercatore,MANTOVANI Claudia,F,PERUGIA,Scienze Politiche,11/A3,Dip. SCIENZE STORICHE
Ricercatore,MARCHESINI Daniele,M,PARMA,Lettere e Filosofia,11/A3,Dip. STORIA
Ricercatore,MARGOTTI Marta,F,TORINO,Scienze Politiche,11/A3,Dip. STUDI STORICI
Ricercatore,MARIANO Marco,M,PIEMONTE ORIENTALE,Lettere e Filosofia,11/A3,Dip. STUDI UMANISTICI
Ordinario,MARMO Marcella,F,"NAPOLI ""Federico II""",Lettere e Filosofia,11/A3,Dip. DISCIPLINE STORICHE
Ordinario,MARROCU Luciano,M,CAGLIARI,Lettere e Filosofia,11/A3,"Dip. STUDI STORICI, GEOGRAFICI E ARTISTICI"
Ricercatore,MARTELLINI Amoreno,M,Urbino Carlo Bo,Lingue e Letterature Straniere,11/A3,"Dip. STUDI INTERNAZIONALI. STORIA, LINGUE, CULTURE"
Ordinario,MARTINELLI Stefano,M,FIRENZE,Scienze della Formazione,11/A3,Dip. SCIENZE DELL'EDUCAZIONE E DEI PROCESSI CULTURALI E FORMATIVI
Ordinario,MASELLA Luigi,M,BARI,Lettere e Filosofia,11/A3,"Dip. FILOSOFIA,LETTERATURA,STORIA E SCIENZE SOCIALI (FLESS)"
Ricercatore,MASSARA Katia,F,della CALABRIA,Lettere e Filosofia,11/A3,Dip. STORIA
Ordinario,MASULLI Ignazio,M,BOLOGNA,Lettere e Filosofia,11/A3,"Dip. DISCIPLINE STORICHE, ANTROPOLOGICHE E GEOGRAFICHE"
Ricercatore,MASUTTI Monica,F,"ROMA ""La Sapienza""","Sc. Politiche, Sociologia, Comunicazione (*)",11/A3,Dip. SCIENZE POLITICHE
Ricercatore,MATTERA Paolo,M,ROMA TRE,Lettere e Filosofia,11/A3,"Dip. STUDI STORICI,GEOGRAFICI E ANTROPOLOGICI"
Ricercatore,MELE Giannarita,F,CAGLIARI,Lingue e Letterature Straniere,11/A3,"Dip. STUDI STORICI, GEOGRAFICI E ARTISTICI"
Ricercatore a t.d. (art.1 comma 14 L. 230/05),MELOTTI Marxiano,M,UNICUSANO - Telematica Roma,Scienze della Formazione,,Dip. DIPARTIMENTO UNICUSANO
Associato confermato,MENGOZZI Dino,M,Urbino Carlo Bo,Scienze della Formazione,11/A3,Dip. SCIENZE DELL'UOMO
Ordinario,MENOZZI Daniele,M,Scuola Normale Superiore di PISA,Classe di Scienze Umane,11/A3,Dip. CLASSE DI SCIENZE UMANE
Associato confermato,MERIGGI Maria Grazia,F,BERGAMO,Lingue e Letterature Straniere,11/A3,"Dip. SCIENZE DEI LINGUAGGI, DELLA COMUNICAZIONE E DEGLI STUDI CULTURALI"
Ricercatore,MEROLLA Maria Luisa,F,"ROMA ""La Sapienza""","Sc. Politiche, Sociologia, Comunicazione (*)",11/A3,Dip. SCIENZE SOCIALI
Associato confermato,MILAN Marina,F,GENOVA,Scienze Politiche,11/A3,Dip. SCIENZE POLITICHE
Ricercatore,MILLEVOLTE Giovanna,F,L'AQUILA,Lettere e Filosofia,11/A3,Dip. CULTURE COMPARATE
Ricercatore,MILLO Anna,F,BARI,Scienze Politiche,11/A3,Dip. DIRITTO INTERNAZIONALE E DELL'UNIONE EUROPEA
Associato confermato,MINESSO Michela,F,MILANO,Scienze Politiche,11/A3,Dip. STORIA DELLA SOCIETA' E DELLE ISTITUZIONI
Straordinario,MINNITI Fortunato,M,ROMA TRE,Scienze Politiche,11/A3,Dip. STUDI INTERNAZIONALI
Ricercatore non confermato,MINUTO Emanuela,F,PISA,Scienze Politiche,11/A3,Dip. SCIENZE POLITICHE E SOCIALI
Ricercatore,MISIANI Simone,M,TERAMO,Scienze Politiche,11/A3,Dip. STORIA E CRITICA DELLA POLITICA
Straordinario,MOLINARI Augusta,F,GENOVA,Scienze della Formazione,11/A3,Dip. SCIENZE DELLA FORMAZIONE (DISFOR)
Associato non confermato,MONINA Giancarlo,M,ROMA TRE,Lettere e Filosofia,11/A3,Dip. COMUNICAZIONE E SPETTACOLO
Associato confermato,MONTALDO Silvano,M,TORINO,Lettere e Filosofia,11/A3,Dip. STUDI STORICI
Ordinario,MONTRONI Giovanni,M,"NAPOLI ""Federico II""",Lettere e Filosofia,11/A3,Dip. DISCIPLINE STORICHE
Associato confermato,MORANO Michelangelo,M,BASILICATA,Lettere e Filosofia,11/A3,"Dip. SCIENZE STORICHE, LINGUISTICHE ED ANTROPOLOGICHE"
Straordinario,MORETTI Mauro,M,Stranieri di SIENA,Lingua e Cultura Italiana,11/A3,Dip. SCIENZE UMANE
Ordinario,MORO Renato,M,ROMA TRE,Scienze Politiche,11/A3,Dip. STUDI INTERNAZIONALI
Ricercatore non confermato,MORONI Sheyla,F,FIRENZE,Scienze Politiche,11/A3,Dip. STUDI SULLO STATO
Ordinario,MOROZZO DELLA ROCCA Roberto,M,ROMA TRE,Lettere e Filosofia,11/A3,"Dip. STUDI STORICI,GEOGRAFICI E ANTROPOLOGICI"
Associato confermato,MUSELLA Luigi,M,"NAPOLI ""Federico II""",Lettere e Filosofia,11/A3,Dip. DISCIPLINE STORICHE
Ricercatore,MUSSO Stefano,M,TORINO,Scienze Politiche,11/A3,Dip. STUDI STORICI
Associato confermato,NASSISI Cosima,F,SALENTO,Lingue e Letterature Straniere,11/A3,Dip. LINGUE E LETTERATURE STRANIERE
Ordinario,NATOLI Claudio,M,CAGLIARI,Lettere e Filosofia,11/A3,"Dip. STUDI STORICI, GEOGRAFICI E ARTISTICI"
Associato confermato,NEGLIE Pietro,M,TRIESTE,Scienze Politiche,11/A3,Dip. SCIENZE POLITICHE E SOCIALI
Ordinario,NELLO Paolo,M,PISA,Scienze Politiche,11/A3,Dip. SCIENZE POLITICHE E SOCIALI
Ordinario,NENCI Giacomina,F,PERUGIA,Lettere e Filosofia,11/A3,Dip. SCIENZE STORICHE
Ricercatore,NERI Nicola,M,BARI,Scienze Politiche,11/A3,Dip. DIRITTO INTERNAZIONALE E DELL'UNIONE EUROPEA
Ordinario,NERI SERNERI Simone,M,SIENA,Scienze Politiche,11/A3,"Dip. SCIENZE STORICHE, GIURIDICHE, POLITICHE E SOCIALI"
Ricercatore,NICOLOSI Pellegrino Gerardo,M,SIENA,Scienze Politiche,11/A3,"Dip. SCIENZE STORICHE, GIURIDICHE, POLITICHE E SOCIALI"
Ricercatore,NOCE Tiziana,F,della CALABRIA,Scienze Politiche,11/A3,Dip. SOCIOLOGIA E SCIENZA POLITICA
Ordinario,NOVELLI Cecilia,F,CAGLIARI,Scienze Politiche,11/A3,Dip. STORICO POLITICO INTERNAZIONALE DELL'ETA' MODERNA E CONTEMPORANEA
Ricercatore a t.d. (art. 24 comma 3-a L. 240/10),NUCIFORA Melania,F,CATANIA,,11/A3,Dip. SCIENZE UMANISTICHE
Ricercatore,ORECCHIA Antonio Maria,M,INSUBRIA,,11/A3,Dip. Scienze Teoriche e Applicate
Ricercatore,ORSI Pier Luigi,M,PISA,Lettere e Filosofia,11/A3,Dip. STORIA
Associato confermato,ORSINA Giovanni,M,"LUISS ""Guido Carli"" - ROMA",,11/A3,Dip. SCIENZE POLITICHE
Ordinario,PACIFICI Vincenzo,M,"ROMA ""La Sapienza""",Filosof. Lett. Sc.Umanistiche e St.Orientali (*),11/A3,"Dip. SCIENZE DOCUMENTARIE, LINGUISTICO-FILOLOGICHE E GEOGRAFICHE"
Ordinario,PALLA Marco,M,FIRENZE,Lettere e Filosofia,11/A3,Dip. STUDI STORICI E GEOGRAFICI
Associato confermato,PANICO Guido,M,SALERNO,Lettere e Filosofia,11/A3,"Dip. SCIENZE POLITICHE, SOCIALI E DELLA COMUNICAZIONE/SPSC"
Ricercatore non confermato,PAOLINI Federico,M,CAMPANIA - âL. VANVITELLIâ,Lettere e Filosofia,11/A3,Dip. STUDIO DELLE COMPONENTI CULTURALI DEL TERRITORIO
Associato confermato,PAOLINO Marco Salvatore,M,TUSCIA,,11/A3,"Dip. Scienze umanistiche, della comunicazione e del turismo"
Ricercatore non confermato,PAPADIA Elena,F,"ROMA ""La Sapienza""",Filosof. Lett. Sc.Umanistiche e St.Orientali (*),11/A3,"Dip. STORIA, CULTURE, RELIGIONI"
Associato confermato,PARDINI Giuseppe,M,MOLISE,Economia,11/A3,"Dip. SCIENZE UMANE,STORICHE E SOCIALI"
Ricercatore,PARENTE Ulderico,M,Univ. Studi Internazionali di ROMA (UNINT),Scienze Politiche,11/A3,Dip. PIO V
Ordinario,PARISELLA Antonio,M,PARMA,Lettere e Filosofia,11/A3,Dip. STUDI POLITICI E SOCIALI
Ordinario,PARLATO Giuseppe,M,Univ. Studi Internazionali di ROMA (UNINT),Interpretariato e Traduzione,11/A3,Dip. PIO V
Associato confermato,PARRELLA Roberto,M,SALERNO,Scienze Politiche,11/A3,"Dip. SCIENZE POLITICHE, SOCIALI E DELLA COMUNICAZIONE/SPSC"
Ordinario,PASIMENI Carmelo,M,SALENTO,Lettere e Filosofia,11/A3,Dip. STUDI STORICI DAL MEDIOEVO ALL'ETA' CONTEMPORANEA
Associato confermato,PASQUINUCCI Daniele,M,SIENA,Scienze Politiche,11/A3,"Dip. SCIENZE STORICHE, GIURIDICHE, POLITICHE E SOCIALI"
Ricercatore non confermato,PAVAN Ilaria,F,Scuola Normale Superiore di PISA,Classe di Scienze Umane,11/A3,Dip. CLASSE DI SCIENZE UMANE
Ricercatore,PEGNA Serenella,F,PISA,Scienze Politiche,11/A3,Dip. SCIENZE POLITICHE E SOCIALI
Ricercatore,PELI Santo,M,PADOVA,Scienze Politiche,11/A3,Dip. STUDI STORICI E POLITICI
Associato confermato,PELIZZARI Maria Rosaria,F,SALERNO,Lingue e Letterature Straniere,11/A3,"Dip. STUDI UMANISTICI(FILOLOGICI,LETTERARI,LINGUISTICI E STORICI)/DISPSUM"
Ricercatore,PELLE' Maria Loredana,F,SALENTO,Lingue e Letterature Straniere,11/A3,Dip. LINGUE E LETTERATURE STRANIERE
Ordinario,PELLEGRINI Giancarlo,M,PERUGIA,Scienze Politiche,11/A3,Dip. SCIENZE STORICHE
Associato confermato,PELLICCIARI Igor,M,SALENTO,"Scienze Sociali, Politiche e del Territorio",11/A3,Dip. SCIENZE SOCIALI E DELLA COMUNICAZIONE
Ordinario,PERONA Gianni,M,TORINO,Lingue e Letterature Straniere,11/A3,Dip. LINGUE E LETTERATURE STRANIERE E CULTURE MODERNE
Ordinario,PERTICI Roberto,M,BERGAMO,Scienze della Formazione,11/A3,Dip. SCIENZE DELLA PERSONA
Straordinario,PETRI Rolf,M,"""Ca' Foscari"" VENEZIA",,11/A3,Dip. Studi Linguistici e Culturali Comparati
Ordinario,PEZZINO Paolo,M,PISA,Lettere e Filosofia,11/A3,Dip. STORIA
Associato confermato,PIAZZONI Irene Maria Luisa,F,MILANO,Lettere e Filosofia,11/A3,"Dip. SCIENZE DELLA STORIA E DELLA DOCUMENTAZIONE STORICA (MEDIOEVO, ETA' MODERNA, ETA' CONTEMPORANEA)"
Ricercatore,PICCIAREDDA Stefano,M,FOGGIA,Scienze della Formazione,11/A3,"Dip. SCIENZE UMANE, TERRITORIO, BENI CULTURALI, CIVILTA' LETTERARIE, FORMAZIONE"
Associato confermato,PICCININI Gilberto,M,Urbino Carlo Bo,Lettere e Filosofia,11/A3,"Dip. STUDI INTERNAZIONALI. STORIA, LINGUE, CULTURE"
Ricercatore,PICCIONI Lidia,F,"ROMA ""La Sapienza""",Filosof. Lett. Sc.Umanistiche e St.Orientali (*),11/A3,"Dip. STORIA, CULTURE, RELIGIONI"
Associato confermato,PIGNOTTI Marco,M,CAGLIARI,Lingue e Letterature Straniere,11/A3,"Dip. STUDI STORICI, GEOGRAFICI E ARTISTICI"
Ricercatore,PINTO Carmine,M,SALERNO,Lettere e Filosofia,11/A3,"Dip. STUDI UMANISTICI(FILOLOGICI,LETTERARI,LINGUISTICI E STORICI)/DISPSUM"
Ricercatore,PIRA Stefano,M,CAGLIARI,Scienze Politiche,11/A3,Dip. STORICO POLITICO INTERNAZIONALE DELL'ETA' MODERNA E CONTEMPORANEA
Associato confermato,PIRRO Federico,M,BARI,Lettere e Filosofia,11/A3,"Dip. FILOSOFIA,LETTERATURA,STORIA E SCIENZE SOCIALI (FLESS)"
Ricercatore,PISA DI MONTEROSA Beatrice,F,"ROMA ""La Sapienza""","Sc. Politiche, Sociologia, Comunicazione (*)",11/A3,Dip. SCIENZE POLITICHE
Ordinario,PISANO Laura,F,CAGLIARI,Lingue e Letterature Straniere,11/A3,"Dip. STUDI STORICI, GEOGRAFICI E ARTISTICI"
Ordinario,PIVA Francesco,M,"ROMA ""Tor Vergata""",Lettere e Filosofia,11/A3,Dip. STORIA
Ordinario,PIVATO Stefano,M,Urbino Carlo Bo,Lingue e Letterature Straniere,11/A3,"Dip. STUDI INTERNAZIONALI. STORIA, LINGUE, CULTURE"
Ricercatore,PIZZO Paola,F,CHIETI-PESCARA,Lettere e Filosofia,11/A3,"Dip. LETTERE, ARTI E SCIENZE SOCIALI"
Associato confermato,PLATANIA Margherita,F,SALERNO,Lettere e Filosofia,11/A3,"Dip. STUDI UMANISTICI(FILOLOGICI,LETTERARI,LINGUISTICI E STORICI)/DISPSUM"
Associato non confermato,POIDOMANI Giancarlo,M,CATANIA,Scienze Politiche,11/A3,Dip. ANALISI DEI PROCESSI POLITICI SOCIALI ED ISTITUZIONALI
Associato confermato,POLESE REMAGGI Luca,M,SALERNO,Lettere e Filosofia,11/A3,"Dip. STUDI UMANISTICI(FILOLOGICI,LETTERARI,LINGUISTICI E STORICI)/DISPSUM"
Ricercatore,POMA Vittorio,M,PAVIA,Scienze Politiche,11/A3,Dip. Non disponibile
Ordinario,POMBENI Paolo,M,BOLOGNA,Scienze Politiche,11/A3,"Dip. POLITICA, ISTITUZIONI, STORIA"
Ordinario,PORCIANI Ilaria,F,BOLOGNA,Lettere e Filosofia,11/A3,"Dip. DISCIPLINE STORICHE, ANTROPOLOGICHE E GEOGRAFICHE"
Straordinario,PREDA Daniela,F,GENOVA,Scienze Politiche,11/A3,Dip. SCIENZE POLITICHE
Associato confermato,PRETI Alberto,M,BOLOGNA,Scienze della Formazione,11/A3,"Dip. DISCIPLINE STORICHE, ANTROPOLOGICHE E GEOGRAFICHE"
Associato confermato,PRETI Domenico,M,FIRENZE,Economia,11/A3,Dip. Non disponibile
Ordinario,PUNZO Maurizio,M,MILANO,Lettere e Filosofia,11/A3,"Dip. SCIENZE DELLA STORIA E DELLA DOCUMENTAZIONE STORICA (MEDIOEVO, ETA' MODERNA, ETA' CONTEMPORANEA)"
Associato confermato,PUPO Raoul,M,TRIESTE,Scienze Politiche,11/A3,Dip. SCIENZE POLITICHE E SOCIALI
Ordinario,QUAGLIARIELLO Gaetano,M,"LUISS ""Guido Carli"" - ROMA",,11/A3,Dip. SCIENZE POLITICHE
Associato confermato,RAGUSA Andrea,M,SIENA,Scienze Politiche,11/A3,"Dip. SCIENZE STORICHE, GIURIDICHE, POLITICHE E SOCIALI"
Ordinario,RANZATO Gabriele,M,PISA,Lettere e Filosofia,11/A3,Dip. STORIA
Ricercatore,RAPINI Andrea,M,MODENA e REGGIO EMILIA,Sc. Comunicazione e Economia,11/A3,Dip. COMUNICAZIONE E ECONOMIA
Ordinario,RAPONE Leonardo,M,TUSCIA,,11/A3,"Dip. Studi linguistico-letterari, storico-filosofici e giuridici"
Ricercatore non confermato,RASPADORI Paolo,M,PERUGIA,Lettere e Filosofia,11/A3,Dip. SCIENZE STORICHE
Ordinario,RIDOLFI Maurizio,M,TUSCIA,,11/A3,Dip. Economia e Impresa
Ricercatore non confermato,RIGANO Gabriele,M,Stranieri di PERUGIA,Lingua e Cultura Italiana,11/A3,Dip. CULTURE COMPARATE
Ordinario,RIZZI Francesco Paolo,M,ROMA TRE,Lettere e Filosofia,11/A3,"Dip. STUDI STORICI,GEOGRAFICI E ANTROPOLOGICI"
Ricercatore,RIZZO Domenico,M,"""L'Orientale"" di NAPOLI",Scienze Politiche,11/A3,Dip. SCIENZE UMANE E SOCIALI
Ordinario,RIZZO Maria Marcella,F,SALENTO,Beni Culturali,11/A3,Dip. STUDI STORICI DAL MEDIOEVO ALL'ETA' CONTEMPORANEA
Ordinario,ROCCUCCI Adriano,M,ROMA TRE,Lettere e Filosofia,11/A3,"Dip. STUDI STORICI,GEOGRAFICI E ANTROPOLOGICI"
Ordinario,ROGARI Sandro,M,FIRENZE,Scienze Politiche,11/A3,Dip. STUDI SULLO STATO
Associato confermato,ROMANATO Gianpaolo,M,PADOVA,Lettere e Filosofia,11/A3,Dip. STORIA
Ordinario,ROMANELLI Raffaele,M,"ROMA ""La Sapienza""",Filosof. Lett. Sc.Umanistiche e St.Orientali (*),11/A3,"Dip. STORIA, CULTURE, RELIGIONI"
Associato confermato,ROMANO Andrea,M,"ROMA ""Tor Vergata""",Lettere e Filosofia,11/A3,Dip. STORIA
Ricercatore,ROMANO Michele,M,SALENTO,Lettere e Filosofia,11/A3,Dip. STUDI STORICI DAL MEDIOEVO ALL'ETA' CONTEMPORANEA
Ordinario,ROSSI Luigino,M,SALERNO,Scienze Politiche,11/A3,"Dip. SCIENZE POLITICHE, SOCIALI E DELLA COMUNICAZIONE/SPSC"
Associato confermato,ROSSINI Daniela,F,ROMA TRE,Lettere e Filosofia,11/A3,"Dip. STUDI STORICI,GEOGRAFICI E ANTROPOLOGICI"
Ordinario,SABBATUCCI Giovanni,M,"ROMA ""La Sapienza""",Filosof. Lett. Sc.Umanistiche e St.Orientali (*),11/A3,"Dip. STORIA, CULTURE, RELIGIONI"
Associato confermato,SACCO Domenico,M,SALENTO,Lingue e Letterature Straniere,11/A3,Dip. LINGUE E LETTERATURE STRANIERE
Ricercatore,SACCOMAN Andrea,M,MILANO-BICOCCA,Scienze della Formazione,11/A3,Dip. SCIENZE UMANE PER LA FORMAZIONE
Ordinario,SAGRESTANI Marco,M,FIRENZE,Scienze Politiche,11/A3,Dip. STUDI SULLO STATO
Associato confermato,SALIMBENI Fulvio,M,UDINE,,11/A3,Dip. Scienze Umane
Ordinario,SALOMONI Antonella,F,della CALABRIA,Scienze Politiche,11/A3,Dip. SOCIOLOGIA E SCIENZA POLITICA
Ricercatore,SALVATICI Silvia,F,TERAMO,Scienze della Comunicazione,11/A3,Dip. Non disponibile
Associato confermato,SALVETTI Patrizia,F,"ROMA ""La Sapienza""","Sc. Politiche, Sociologia, Comunicazione (*)",11/A3,Dip. SCIENZE POLITICHE
Ricercatore,SANGIOVANNI Andrea,M,TERAMO,Scienze della Comunicazione,11/A3,Dip. SCIENZE DELLA COMUNICAZIONE
Associato confermato,SANTOMASSIMO Giampasquale,M,SIENA,Lettere e Filosofia,11/A3,Dip. STORIA
Ordinario,SARESELLA Daniela,F,MILANO,Scienze Politiche,11/A3,"Dip. SCIENZE DELLA STORIA E DELLA DOCUMENTAZIONE STORICA (MEDIOEVO, ETA' MODERNA, ETA' CONTEMPORANEA)"
Ricercatore,SAVELLI Laura,F,PISA,Lettere e Filosofia,11/A3,Dip. STORIA
Associato confermato,SCACCHI Domenico,M,ROMA TRE,Scienze della Formazione,11/A3,"Dip. STUDI DEI PROCESSI FORMATIVI, CULTURALI E INTERCULTURALI NELLA SOCIETA' CONTEMPORANEA"
Ricercatore,SCALPELLI Laura,F,"ROMA ""La Sapienza""","Sc. Politiche, Sociologia, Comunicazione (*)",11/A3,Dip. SCIENZE POLITICHE
Ricercatore non confermato,SCARANTINO Anna,F,ROMA TRE,Scienze Politiche,11/A3,Dip. STUDI INTERNAZIONALI
Straordinario,SCARPELLINI Emanuela,F,MILANO,Lettere e Filosofia,11/A3,"Dip. SCIENZE DELLA STORIA E DELLA DOCUMENTAZIONE STORICA (MEDIOEVO, ETA' MODERNA, ETA' CONTEMPORANEA)"
Ricercatore,SCATENA Silvia,F,MODENA e REGGIO EMILIA,Scienze della Formazione,11/A3,Dip. EDUCAZIONE E SCIENZE UMANE
Ricercatore non confermato,SCAVINO Marco,M,TORINO,Lettere e Filosofia,11/A3,Dip. STUDI STORICI
Ricercatore,SCHININA' Giovanni,M,CATANIA,Lettere e Filosofia,11/A3,Dip. ANALISI DEI PROCESSI POLITICI SOCIALI ED ISTITUZIONALI
Ricercatore,SCIROCCO Giovanni Angelo,M,BERGAMO,Lingue e Letterature Straniere,11/A3,"Dip. SCIENZE DEI LINGUAGGI, DELLA COMUNICAZIONE E DEGLI STUDI CULTURALI"
Ricercatore non confermato,SCORNAJENGHI Antonio,M,ROMA TRE,Lettere e Filosofia,11/A3,"Dip. STUDI STORICI,GEOGRAFICI E ANTROPOLOGICI"
Associato confermato,SELIS Domenico,M,CAGLIARI,Scienze Politiche,11/A3,Dip. STORICO POLITICO INTERNAZIONALE DELL'ETA' MODERNA E CONTEMPORANEA
Ordinario,SERENI Umberto,M,UDINE,,11/A3,Dip. Storia e Tutela dei Beni Culturali
Ricercatore,SEVERINI Marco,M,MACERATA,Lettere e Filosofia,11/A3,"Dip. SCIENZE STORICHE, DOCUMENTARIE, ARTISTICHE E DEL TERRITORIO"
Ricercatore,SEVERINO Natalina Maria,F,CATANIA,Scienze della Formazione,11/A3,Dip. ANALISI DEI PROCESSI POLITICI SOCIALI ED ISTITUZIONALI
Ordinario,SIGNORELLI Alfio,M,L'AQUILA,Lettere e Filosofia,11/A3,Dip. CULTURE COMPARATE
Straordinario,SIGNORI Elisa,F,PAVIA,Lettere e Filosofia,11/A3,Dip. STUDI UMANISTICI
Ricercatore,SILEI Gianni,M,SIENA,Scienze Politiche,11/A3,"Dip. SCIENZE STORICHE, GIURIDICHE, POLITICHE E SOCIALI"
Associato confermato,SOCRATE Francesca,F,"ROMA ""La Sapienza""",Filosof. Lett. Sc.Umanistiche e St.Orientali (*),11/A3,"Dip. STORIA, CULTURE, RELIGIONI"
Ordinario,SOLDANI Simonetta,F,FIRENZE,Lettere e Filosofia,11/A3,Dip. STUDI STORICI E GEOGRAFICI
Straordinario,SORBA Carlotta,F,PADOVA,Lettere e Filosofia,11/A3,Dip. STORIA
Ordinario,SORCINELLI Paolo,M,BOLOGNA,Lettere e Filosofia,11/A3,"Dip. DISCIPLINE STORICHE, ANTROPOLOGICHE E GEOGRAFICHE"
Associato non confermato,SORESINA Marco,M,MILANO,Lettere e Filosofia,11/A3,"Dip. SCIENZE DELLA STORIA E DELLA DOCUMENTAZIONE STORICA (MEDIOEVO, ETA' MODERNA, ETA' CONTEMPORANEA)"
Associato confermato,SORU Maria Carmela,F,CAGLIARI,Scienze della Formazione,11/A3,"Dip. STUDI STORICI, GEOGRAFICI E ARTISTICI"
Ricercatore,SPAGNOLETTI Mario,M,BARI,Scienze Politiche,11/A3,Dip. PER LO STUDIO DELLE SOCIETA' MEDITERRANEE
Ricercatore,SPAGNOLO Carlo,M,BARI,Lettere e Filosofia,11/A3,"Dip. FILOSOFIA,LETTERATURA,STORIA E SCIENZE SOCIALI (FLESS)"
Associato confermato,SPAMPINATO Rosario,M,CATANIA,Scienze Politiche,11/A3,Dip. ANALISI DEI PROCESSI POLITICI SOCIALI ED ISTITUZIONALI
Associato confermato,STADERINI Alessandra,F,FIRENZE,Scienze Politiche,11/A3,Dip. STUDI SULLO STATO
Ricercatore a t.d. (art.1 comma 14 L. 230/05),STRAMACCIONI Alberto,M,Stranieri di PERUGIA,,,Dip. SCIENZE UMANE E SOCIALI
Ricercatore,STUPIA Michele,M,MESSINA,Scienze Politiche,11/A3,"Dip. SCIENZE GIURIDICHE, STORICHE E POLITICHE"
Ricercatore,TACCHI Francesca,F,FIRENZE,Lettere e Filosofia,11/A3,Dip. STUDI STORICI E GEOGRAFICI
Ricercatore,TAGLIAFERRI Teodoro,M,"NAPOLI ""Federico II""",Lettere e Filosofia,11/A3,Dip. DISCIPLINE STORICHE
Associato confermato,TAROZZI Fiorenza,F,BOLOGNA,Lingue e Letterature Straniere,11/A3,"Dip. DISCIPLINE STORICHE, ANTROPOLOGICHE E GEOGRAFICHE"
Ricercatore non confermato,TARQUINI Alessandra,F,"ROMA ""La Sapienza""","Sc. Politiche, Sociologia, Comunicazione (*)",11/A3,Dip. SCIENZE SOCIALI
Associato non confermato,TAVIANI Ermanno,M,CATANIA,Scienze della Formazione,11/A3,Dip. PROCESSI FORMATIVI
Ricercatore,TEDESCO Luca,M,ROMA TRE,Scienze della Formazione,11/A3,"Dip. STUDI DEI PROCESSI FORMATIVI, CULTURALI E INTERCULTURALI NELLA SOCIETA' CONTEMPORANEA"
Ordinario,TESORO Marina,F,PAVIA,Scienze Politiche,11/A3,Dip. SCIENZE POLITICHE E SOCIALI
Associato confermato,TINO Pietro,M,ROMA TRE,Lettere e Filosofia,11/A3,"Dip. STUDI STORICI,GEOGRAFICI E ANTROPOLOGICI"
Ricercatore,TOLOMELLI Marica,F,BOLOGNA,Lettere e Filosofia,11/A3,"Dip. DISCIPLINE STORICHE, ANTROPOLOGICHE E GEOGRAFICHE"
Straordinario,TOMASSINI Luigi,M,BOLOGNA,Conservazione dei Beni Culturali,11/A3,Dip. STORIE E METODI PER LA CONSERVAZIONE DEI BENI CULTURALI
Associato confermato,TONELLI Anna,F,Urbino Carlo Bo,Scienze Politiche,11/A3,"Dip. STUDI INTERNAZIONALI. STORIA, LINGUE, CULTURE"
Ricercatore,TONIZZI Maria Elisabetta,F,GENOVA,Scienze Politiche,11/A3,Dip. SCIENZE POLITICHE
Associato confermato,TOSCANO Mario,M,"ROMA ""La Sapienza""","Sc. Politiche, Sociologia, Comunicazione (*)",11/A3,Dip. SCIENZE POLITICHE
Ricercatore,TOTARO Pierluigi,M,"NAPOLI ""Federico II""",Lettere e Filosofia,11/A3,Dip. DISCIPLINE STORICHE
Ordinario,TRINCHESE Stefano,M,CHIETI-PESCARA,Lettere e Filosofia,11/A3,"Dip. LETTERE, ARTI E SCIENZE SOCIALI"
Associato confermato,TROVA Assunta Angela Vera,F,SASSARI,Scienze Politiche,11/A3,Dip. STORIA
Ordinario,TURI Gabriele,M,FIRENZE,Lettere e Filosofia,11/A3,Dip. STUDI STORICI E GEOGRAFICI
Ordinario,UGOLINI Romano,M,PERUGIA,Scienze della Formazione,11/A3,Dip. SCIENZE UMANE E DELLA FORMAZIONE
Ricercatore a t.d. (art.1 comma 14 L. 230/05),UNGARI Andrea,M,Univ. Telematica GUGLIELMO MARCONI,Lettere,11/A3,"Dip. STUDI FILOSOFICI, ARTISTICI E FILOLOGICI"
Associato confermato,VALDEVIT Giampaolo,M,TRIESTE,Scienze della Formazione,11/A3,Dip. STUDI UMANISTICI
Ricercatore,VALENTE Massimiliano,M,EUROPEA di ROMA,FacoltÃ  in Ambito di Storia,11/A3,Dip. SCIENZE UMANE
Ricercatore,VALENTINI Isabella,F,Univ. Studi Internazionali di ROMA (UNINT),Interpretariato e Traduzione,11/A3,Dip. PIO V
Ordinario,VARNI Angelo,M,BOLOGNA,Lettere e Filosofia,11/A3,"Dip. DISCIPLINE STORICHE, ANTROPOLOGICHE E GEOGRAFICHE"
Ricercatore,VARVARO Paolo,M,"NAPOLI ""Federico II""",Lettere e Filosofia,11/A3,"Dip. ANALISI DEI PROCESSI ECONOMICO-SOCIALI, LINGUISTICI, PRODUTTIVI E TERRITORIALI"
Ordinario,VAUDAGNA Maurizio,M,PIEMONTE ORIENTALE,Lettere e Filosofia,11/A3,Dip. STUDI UMANISTICI
Ordinario,VECCHIO Giorgio,M,PARMA,Lettere e Filosofia,11/A3,Dip. STORIA
Ricercatore,VENTRE Sabrina,F,TRIESTE,Scienze della Formazione,11/A3,Dip. STUDI UMANISTICI
Ordinario,VENTRONE Angelo,M,MACERATA,Scienze Politiche,11/A3,Dip. DIRITTO PUBBLICO E TEORIA DEL GOVERNO
Ricercatore,VENTURI Antonello Livio,M,PISA,Lettere e Filosofia,11/A3,Dip. STORIA
Ricercatore,VERRASTRO Donato,M,SALERNO,Scienze della Formazione,11/A3,"Dip. SCIENZE POLITICHE, SOCIALI E DELLA COMUNICAZIONE/SPSC"
Associato confermato,VETTER Cesare,M,TRIESTE,Lettere e Filosofia,11/A3,Dip. STUDI UMANISTICI
Ricercatore non confermato,VILLANI Claudia,F,BARI,Lettere e Filosofia,11/A3,"Dip. FILOSOFIA,LETTERATURA,STORIA E SCIENZE SOCIALI (FLESS)"
Associato confermato,VIOLI Roberto Pasquale,M,CASSINO e LAZIO MERIDIONALE,Lettere e Filosofia,11/A3,Dip. FILOLOGIA E STORIA
Ordinario,VITTORIA Albertina,F,SASSARI,Scienze Politiche,11/A3,Dip. STORIA
Associato confermato,VITTORIO Agatino,M,CATANIA,Scienze Politiche,11/A3,Dip. ANALISI DEI PROCESSI POLITICI SOCIALI ED ISTITUZIONALI
Associato confermato,VOLPI Alessandro,M,PISA,Scienze Politiche,11/A3,Dip. SCIENZE POLITICHE E SOCIALI
Ricercatore,ZANGARINI Maurizio,M,VERONA,,11/A3,"Dip. Tempo, spazio, immagine, societa'"
Ordinario,ZANI Luciano,M,"ROMA ""La Sapienza""","Sc. Politiche, Sociologia, Comunicazione (*)",11/A3,Dip. SCIENZE SOCIALI
Ricercatore a t.d. (art.1 comma 14 L. 230/05),ZIGLIOLI Bruno,M,PAVIA,,,Dip. SCIENZE POLITICHE E SOCIALI
Ordinario,ZUNINO Pier Giorgio,M,TORINO,Scienze Politiche,11/A3,Dip. STUDI STORICI
